<?xml version="1.0" encoding="UTF-8" standalone="no"?>
<!DOCTYPE svg PUBLIC "-//W3C//DTD SVG 1.1//EN" "http://www.w3.org/Graphics/SVG/1.1/DTD/svg11.dtd">
<svg width="100%" height="100%" viewBox="0 0 22205 5197" version="1.1" xmlns="http://www.w3.org/2000/svg" xmlns:xlink="http://www.w3.org/1999/xlink" xml:space="preserve" style="fill-rule:evenodd;clip-rule:evenodd;stroke-linejoin:round;stroke-miterlimit:2;">
    <g transform="matrix(2.05033,0,0,2.05033,19139,2598.43)">
        <g transform="matrix(1,0,0,1,-1181.5,-1181.5)">
            <path d="M1181.1,0C1832.97,0 2362.2,529.234 2362.2,1181.1C2362.2,1832.97 1832.97,2362.2 1181.1,2362.2C529.234,2362.2 0,1832.97 0,1181.1C0,529.234 529.234,0 1181.1,0ZM1821.22,1744.46C1712.64,1644.4 1558.16,1552.72 1119.32,1552.72C819.221,1552.72 217.888,1553.91 217.888,1553.91L218.129,1674.75C218.129,1674.75 819.301,1673.55 1119.32,1673.55C1499.83,1673.55 1639.83,1746.14 1735.97,1830.99L1601.27,1967.69L1970.04,1973.48L1964.43,1599.12L1821.22,1744.46ZM1979.2,1492.78L1979.2,872.405L2104.46,872.405L2104.46,1492.78L1979.2,1492.78ZM218.783,1492.78L218.783,872.405L340.658,872.405L594.565,1286.69L594.565,872.405L710.938,872.405L710.938,1492.78L585.255,1492.78L335.157,1088.22L335.157,1492.78L218.783,1492.78ZM1563.22,1492.78L1341.47,872.405L1477.31,872.405L1634.31,1331.55L1786.23,872.405L1919.11,872.405L1696.94,1492.78L1563.22,1492.78ZM1402.83,1492.78L1266.57,1492.78L1212.4,1351.86L964.421,1351.86L913.217,1492.78L780.339,1492.78L1021.97,872.405L1154.43,872.405L1402.83,1492.78ZM1172.2,1247.34L1086.72,1017.13L1002.93,1247.34L1172.2,1247.34ZM1821.22,620.789L1964.43,766.131L1970.04,391.775L1601.27,397.557L1735.97,534.265C1639.83,619.115 1499.83,691.7 1119.32,691.7C819.301,691.7 218.129,690.505 218.129,690.505L217.888,811.338C217.888,811.338 819.221,812.533 1119.32,812.533C1558.16,812.533 1712.64,720.85 1821.22,620.789Z" style="fill:white;"/>
        </g>
    </g>
    <g transform="matrix(1,0,0,1,7.36474,5.6401)">
        <text x="1188.87px" y="3226.15px" style="font-family:'Arial-BoldMT', 'Arial', sans-serif;font-weight:700;font-size:1770.83px;fill:white;">ENTSCHEIDUNGS</text>
    </g>
</svg>
