{
  "name": "decision-tool",
  "$schema": "../../node_modules/nx/schemas/project-schema.json",
  "projectType": "application",
  "generators": {
    "@nrwl/angular:component": {
      "style": "scss"
    }
  },
  "sourceRoot": "apps/decision-tool/src",
  "prefix": "dt",
  "i18n": {
    "sourceLocale": {
      "code": "de"
    },
    "locales": {
      "en": {
        "translation": "i18n/en.xlf"
      }
    }
  },
  "targets": {
    "build": {
      "executor": "@angular-devkit/build-angular:browser",
      "outputs": ["{options.outputPath}"],
      "options": {
        "outputPath": "dist/apps/decision-tool",
        "index": "apps/decision-tool/src/index.html",
        "main": "apps/decision-tool/src/main.ts",
        "polyfills": "apps/decision-tool/src/polyfills.ts",
        "tsConfig": "apps/decision-tool/tsconfig.app.json",
        "allowedCommonJsDependencies": [
          "escape-latex",
          "exceljs",
          "file-saver",
          "javascript-natural-sort",
          "lodash",
          "pdfmake",
          "quill",
          "quill-blot-formatter",
          "quill-delta",
          "rfdc",
          "sanitize-filename",
          "seedrandom",
          "typed-function",
          "validator",
          "zxcvbn"
        ],
        "assets": [
          "apps/decision-tool/src/favicon.ico",
          "apps/decision-tool/src/assets",
          {
            "glob": "compass.js",
            "input": "tools/matomo",
            "output": "."
          }
        ],
        "styles": ["apps/decision-tool/src/styles.scss", "tools/fonts.scss"],
        "scripts": [],
        "stylePreprocessorOptions": {
          "includePaths": ["apps/decision-tool/src/styles", "libs/widgets/src/styles"]
        },
        "inlineStyleLanguage": "scss",
        "webWorkerTsConfig": "apps/decision-tool/tsconfig.worker.json",
        "i18nMissingTranslation": "warning",
        "crossOrigin": "anonymous",
        "serviceWorker": true,
        "sourceMap": true,
        "ngswConfigPath": "apps/decision-tool/ngsw-config.json",
        "outputHashing": "all",
        "optimization": {
          "scripts": true,
          "styles": {
            "minify": true,
            "inlineCritical": false
          },
          "fonts": true
        },
        "budgets": [
          {
            "type": "initial",
            "maximumWarning": "2mb"
          },
          {
            "type": "anyComponentStyle",
            "maximumWarning": "6kb"
          }
        ]
      },
      "configurations": {
        "production": {
          "fileReplacements": [
            {
              "replace": "apps/decision-tool/src/environments/environment.ts",
              "with": "apps/decision-tool/src/environments/environment.prod.ts"
            }
          ]
        },
        "development": {
          "buildOptimizer": false,
          "optimization": false,
          "vendorChunk": true,
          "extractLicenses": false,
          "namedChunks": true,
          "outputHashing": "none",
          "budgets": []
        },
        "de": {
          "localize": ["de"]
        },
        "en": {
          "localize": ["en"]
        }
      },
      "defaultConfiguration": "production"
    },
    "serve": {
      "executor": "@angular-devkit/build-angular:dev-server",
      "options": {
        "browserTarget": "decision-tool:build:development",
        "proxyConfig": "apps/decision-tool/proxy.conf.json"
      },
      "configurations": {
        "production": {
          "browserTarget": "decision-tool:build:production"
        },
        "en": {
          "browserTarget": "decision-tool:build:development,en"
        },
        "local-backend": {
          "proxyConfig": "apps/decision-tool/proxy-local.conf.json"
        }
      }
    },
    "extract-i18n": {
      "executor": "@angular-devkit/build-angular:extract-i18n",
      "options": {
        "browserTarget": "decision-tool:build",
        "outputPath": "i18n",
        "outFile": "de.decision-tool.xlf"
      }
    },
    "lint": {
      "executor": "@nrwl/linter:eslint",
      "options": {
        "lintFilePatterns": ["apps/decision-tool/src/**/*.ts", "apps/decision-tool/src/**/*.html"]
      },
      "outputs": ["{options.outputFile}"]
    },
    "test": {
      "executor": "@nrwl/jest:jest",
      "options": {
        "jestConfig": "apps/decision-tool/jest.config.ts",
        "passWithNoTests": true
      },
      "outputs": ["{workspaceRoot}/coverage/apps/decision-tool"]
    },
    "container": {
      "executor": "@nx-tools/nx-container:build",
      "options": {
        "load": true,
        "metadata": {
          "images": ["registry.gitlab.com/reflektiert-entscheiden/entscheidungsnavi/decision-tool"],
          "tags": ["type=ref,event=branch", "type=ref,event=tag", "type=semver,pattern={{version}}"]
        },
        "cache-from": ["type=registry,ref=registry.gitlab.com/reflektiert-entscheiden/entscheidungsnavi/decision-tool:buildcache"],
        "cache-to": ["type=registry,ref=registry.gitlab.com/reflektiert-entscheiden/entscheidungsnavi/decision-tool:buildcache,mode=max"]
      }
    }
  },
  "tags": []
}
