{
  "name": "tools",
  "$schema": "../../node_modules/nx/schemas/project-schema.json",
  "sourceRoot": "libs/tools/src",
  "projectType": "library",
  "generators": {},
  "targets": {
    "lint": {
      "executor": "@nrwl/linter:eslint",
      "options": {
        "lintFilePatterns": ["libs/tools/src/**/*.ts", "libs/tools/src/**/*.html"]
      },
      "outputs": ["{options.outputFile}"]
    },
    "test": {
      "executor": "@nrwl/jest:jest",
      "options": {
        "jestConfig": "libs/tools/jest.config.ts",
        "passWithNoTests": true
      },
      "outputs": ["{workspaceRoot}/coverage/libs/tools"]
    }
  },
  "tags": []
}
